lab6/tb_dumpfile.vcd
$date
	Thu Dec 21 19:39:42 2023
$end
$version
	Icarus Verilog
$end
$timescale
	1ps
$end
$scope module cpu_tb $end
$var wire 208 ! stringvar [208:1] $end
$var reg 32 " PC_prv [31:0] $end
$var reg 1 # clock $end
$var reg 1 $ reset $end
$var integer 32 % f [31:0] $end
$var integer 32 & i [31:0] $end
$scope module cpu0 $end
$var wire 1 # clock $end
$var wire 32 ' din [31:0] $end
$var wire 1 $ reset $end
$var wire 32 ( wRegData [31:0] $end
$var wire 32 ) signExtend [31:0] $end
$var wire 32 * rdB [31:0] $end
$var wire 32 + rdA [31:0] $end
$var wire 6 , opcode [5:0] $end
$var wire 5 - instr_rt [4:0] $end
$var wire 5 . instr_rs [4:0] $end
$var wire 5 / instr_rd [4:0] $end
$var wire 32 0 instr [31:0] $end
$var wire 16 1 imm [15:0] $end
$var wire 1 2 hazard_signal $end
$var wire 6 3 func [5:0] $end
$var wire 2 4 fB [1:0] $end
$var wire 2 5 fA [1:0] $end
$var wire 1 6 Zero $end
$var wire 5 7 RegWriteAddr [4:0] $end
$var wire 1 8 RegWrite $end
$var wire 1 9 RegDst $end
$var wire 1 : PC_write $end
$var wire 32 ; MemWriteData [31:0] $end
$var wire 1 < MemWrite $end
$var wire 1 = MemToReg $end
$var wire 1 > MemRead $end
$var wire 1 ? IFID_write $end
$var wire 32 @ DMemOut [31:0] $end
$var wire 1 A Branch $end
$var wire 2 B ALUcntrl [1:0] $end
$var wire 1 C ALUSrc $end
$var wire 32 D ALUOut [31:0] $end
$var wire 4 E ALUOp [3:0] $end
$var wire 32 F ALUInB [31:0] $end
$var wire 32 G ALUInA [31:0] $end
$var reg 32 H EXMEM_ALUOut [31:0] $end
$var reg 1 I EXMEM_Branch $end
$var reg 1 J EXMEM_MemRead $end
$var reg 1 K EXMEM_MemToReg $end
$var reg 1 L EXMEM_MemWrite $end
$var reg 32 M EXMEM_MemWriteData [31:0] $end
$var reg 1 N EXMEM_RegWrite $end
$var reg 5 O EXMEM_RegWriteAddr [4:0] $end
$var reg 1 P EXMEM_Zero $end
$var reg 5 Q EXMEM_instr_rd [4:0] $end
$var reg 1 R IDEX_ALUSrc $end
$var reg 2 S IDEX_ALUcntrl [1:0] $end
$var reg 1 T IDEX_Branch $end
$var reg 1 U IDEX_MemRead $end
$var reg 1 V IDEX_MemToReg $end
$var reg 1 W IDEX_MemWrite $end
$var reg 1 X IDEX_RegDst $end
$var reg 1 Y IDEX_RegWrite $end
$var reg 5 Z IDEX_instr_rd [4:0] $end
$var reg 5 [ IDEX_instr_rs [4:0] $end
$var reg 5 \ IDEX_instr_rt [4:0] $end
$var reg 32 ] IDEX_rdA [31:0] $end
$var reg 32 ^ IDEX_rdB [31:0] $end
$var reg 32 _ IDEX_signExtend [31:0] $end
$var reg 32 ` IFID_PCplus4 [31:0] $end
$var reg 32 a IFID_instr [31:0] $end
$var reg 1 b Iren $end
$var reg 1 c Iwen $end
$var reg 32 d MEMWB_ALUOut [31:0] $end
$var reg 32 e MEMWB_DMemOut [31:0] $end
$var reg 1 f MEMWB_MemToReg $end
$var reg 1 g MEMWB_RegWrite $end
$var reg 5 h MEMWB_RegWriteAddr [4:0] $end
$var reg 5 i MEMWB_instr_rd [4:0] $end
$var reg 32 j PC [31:0] $end
$scope module control_alu $end
$var wire 2 k ALUcntrl [1:0] $end
$var wire 6 l func [5:0] $end
$var reg 4 m ALUOp [3:0] $end
$upscope $end
$scope module control_main $end
$var wire 6 n opcode [5:0] $end
$var reg 1 C ALUSrc $end
$var reg 2 o ALUcntrl [1:0] $end
$var reg 1 A Branch $end
$var reg 1 > MemRead $end
$var reg 1 = MemToReg $end
$var reg 1 < MemWrite $end
$var reg 1 9 RegDst $end
$var reg 1 8 RegWrite $end
$upscope $end
$scope module cpu_DMem $end
$var wire 32 p addr [31:0] $end
$var wire 1 # clock $end
$var wire 32 q din [31:0] $end
$var wire 1 J ren $end
$var wire 1 $ reset $end
$var wire 1 L wen $end
$var wire 32 r dout [31:0] $end
$upscope $end
$scope module cpu_IMem $end
$var wire 32 s addr [31:0] $end
$var wire 1 # clock $end
$var wire 32 t din [31:0] $end
$var wire 1 b ren $end
$var wire 1 $ reset $end
$var wire 1 c wen $end
$var wire 32 u dout [31:0] $end
$upscope $end
$scope module cpu_alu $end
$var wire 32 v inA [31:0] $end
$var wire 32 w inB [31:0] $end
$var wire 4 x op [3:0] $end
$var wire 1 6 zero $end
$var wire 32 y out [31:0] $end
$upscope $end
$scope module cpu_fu $end
$var wire 1 N EXMEM_RegWrite $end
$var wire 5 z EXMEM_instr_rd [4:0] $end
$var wire 5 { IDEX_instr_rs [4:0] $end
$var wire 5 | IDEX_instr_rt [4:0] $end
$var wire 1 g MEMWB_RegWrite $end
$var wire 5 } MEMWB_instr_rd [4:0] $end
$var reg 2 ~ fA [1:0] $end
$var reg 2 !" fB [1:0] $end
$upscope $end
$scope module cpu_hu $end
$var wire 1 J EXMEM_MemRead $end
$var wire 5 "" EXMEM_RegWriteAddr [4:0] $end
$var wire 1 U IDEX_MemRead $end
$var wire 5 #" IDEX_instr_rt [4:0] $end
$var wire 5 $" instr_rs [4:0] $end
$var wire 5 %" instr_rt [4:0] $end
$var reg 1 ? IFID_write $end
$var reg 1 : PC_write $end
$var reg 1 2 hazard_signal $end
$upscope $end
$scope module cpu_regs $end
$var wire 1 # clock $end
$var wire 5 &" raA [4:0] $end
$var wire 5 '" raB [4:0] $end
$var wire 32 (" rdA [31:0] $end
$var wire 32 )" rdB [31:0] $end
$var wire 1 $ reset $end
$var wire 5 *" wa [4:0] $end
$var wire 32 +" wd [31:0] $end
$var wire 1 g wen $end
$var integer 32 ," i [31:0] $end
$upscope $end
$upscope $end
$scope module pipe0 $end
$var wire 32 -" PC [31:0] $end
$var wire 1 # clock $end
$var wire 32 ." instr0 [31:0] $end
$var wire 32 /" instr1 [31:0] $end
$var wire 40 0" stringvar4 [39:0] $end
$var wire 40 1" stringvar3 [39:0] $end
$var wire 40 2" stringvar2 [39:0] $end
$var wire 40 3" stringvar1 [39:0] $end
$var wire 40 4" stringvar0 [39:0] $end
$var wire 208 5" stringvar [208:1] $end
$var reg 32 6" PC_prv [31:0] $end
$var reg 32 7" instr2 [31:0] $end
$var reg 32 8" instr3 [31:0] $end
$var reg 32 9" instr4 [31:0] $end
$scope module instr2str_0 $end
$var wire 32 :" instr [31:0] $end
$var reg 40 ;" stringvar [39:0] $end
$upscope $end
$scope module instr2str_1 $end
$var wire 32 <" instr [31:0] $end
$var reg 40 =" stringvar [39:0] $end
$upscope $end
$scope module instr2str_2 $end
$var wire 32 >" instr [31:0] $end
$var reg 40 ?" stringvar [39:0] $end
$upscope $end
$scope module instr2str_3 $end
$var wire 32 @" instr [31:0] $end
$var reg 40 A" stringvar [39:0] $end
$upscope $end
$scope module instr2str_4 $end
$var wire 32 B" instr [31:0] $end
$var reg 40 C" stringvar [39:0] $end
$upscope $end
$upscope $end
$upscope $end
$scope module cpu_tb $end
$scope module cpu0 $end
$scope module cpu_regs $end
$var reg 32 D" \data[0] [31:0] $end
$upscope $end
$upscope $end
$upscope $end
$scope module cpu_tb $end
$scope module cpu0 $end
$scope module cpu_IMem $end
$var reg 32 E" \data[0] [31:0] $end
$upscope $end
$upscope $end
$upscope $end
$scope module cpu_tb $end
$scope module cpu0 $end
$scope module cpu_DMem $end
$var reg 32 F" \data[0] [31:0] $end
$upscope $end
$upscope $end
$upscope $end
$scope module cpu_tb $end
$scope module cpu0 $end
$scope module cpu_regs $end
$var reg 32 G" \data[1] [31:0] $end
$upscope $end
$upscope $end
$upscope $end
$scope module cpu_tb $end
$scope module cpu0 $end
$scope module cpu_IMem $end
$var reg 32 H" \data[1] [31:0] $end
$upscope $end
$upscope $end
$upscope $end
$scope module cpu_tb $end
$scope module cpu0 $end
$scope module cpu_DMem $end
$var reg 32 I" \data[1] [31:0] $end
$upscope $end
$upscope $end
$upscope $end
$scope module cpu_tb $end
$scope module cpu0 $end
$scope module cpu_regs $end
$var reg 32 J" \data[2] [31:0] $end
$upscope $end
$upscope $end
$upscope $end
$scope module cpu_tb $end
$scope module cpu0 $end
$scope module cpu_IMem $end
$var reg 32 K" \data[2] [31:0] $end
$upscope $end
$upscope $end
$upscope $end
$scope module cpu_tb $end
$scope module cpu0 $end
$scope module cpu_DMem $end
$var reg 32 L" \data[2] [31:0] $end
$upscope $end
$upscope $end
$upscope $end
$scope module cpu_tb $end
$scope module cpu0 $end
$scope module cpu_regs $end
$var reg 32 M" \data[3] [31:0] $end
$upscope $end
$upscope $end
$upscope $end
$scope module cpu_tb $end
$scope module cpu0 $end
$scope module cpu_IMem $end
$var reg 32 N" \data[3] [31:0] $end
$upscope $end
$upscope $end
$upscope $end
$scope module cpu_tb $end
$scope module cpu0 $end
$scope module cpu_DMem $end
$var reg 32 O" \data[3] [31:0] $end
$upscope $end
$upscope $end
$upscope $end
$scope module cpu_tb $end
$scope module cpu0 $end
$scope module cpu_regs $end
$var reg 32 P" \data[4] [31:0] $end
$upscope $end
$upscope $end
$upscope $end
$scope module cpu_tb $end
$scope module cpu0 $end
$scope module cpu_IMem $end
$var reg 32 Q" \data[4] [31:0] $end
$upscope $end
$upscope $end
$upscope $end
$scope module cpu_tb $end
$scope module cpu0 $end
$scope module cpu_DMem $end
$var reg 32 R" \data[4] [31:0] $end
$upscope $end
$upscope $end
$upscope $end
$scope module cpu_tb $end
$scope module cpu0 $end
$scope module cpu_regs $end
$var reg 32 S" \data[5] [31:0] $end
$upscope $end
$upscope $end
$upscope $end
$scope module cpu_tb $end
$scope module cpu0 $end
$scope module cpu_IMem $end
$var reg 32 T" \data[5] [31:0] $end
$upscope $end
$upscope $end
$upscope $end
$scope module cpu_tb $end
$scope module cpu0 $end
$scope module cpu_DMem $end
$var reg 32 U" \data[5] [31:0] $end
$upscope $end
$upscope $end
$upscope $end
$scope module cpu_tb $end
$scope module cpu0 $end
$scope module cpu_regs $end
$var reg 32 V" \data[6] [31:0] $end
$upscope $end
$upscope $end
$upscope $end
$scope module cpu_tb $end
$scope module cpu0 $end
$scope module cpu_IMem $end
$var reg 32 W" \data[6] [31:0] $end
$upscope $end
$upscope $end
$upscope $end
$scope module cpu_tb $end
$scope module cpu0 $end
$scope module cpu_DMem $end
$var reg 32 X" \data[6] [31:0] $end
$upscope $end
$upscope $end
$upscope $end
$scope module cpu_tb $end
$scope module cpu0 $end
$scope module cpu_regs $end
$var reg 32 Y" \data[7] [31:0] $end
$upscope $end
$upscope $end
$upscope $end
$scope module cpu_tb $end
$scope module cpu0 $end
$scope module cpu_IMem $end
$var reg 32 Z" \data[7] [31:0] $end
$upscope $end
$upscope $end
$upscope $end
$scope module cpu_tb $end
$scope module cpu0 $end
$scope module cpu_DMem $end
$var reg 32 [" \data[7] [31:0] $end
$upscope $end
$upscope $end
$upscope $end
$scope module cpu_tb $end
$scope module cpu0 $end
$scope module cpu_regs $end
$var reg 32 \" \data[8] [31:0] $end
$upscope $end
$upscope $end
$upscope $end
$scope module cpu_tb $end
$scope module cpu0 $end
$scope module cpu_IMem $end
$var reg 32 ]" \data[8] [31:0] $end
$upscope $end
$upscope $end
$upscope $end
$scope module cpu_tb $end
$scope module cpu0 $end
$scope module cpu_DMem $end
$var reg 32 ^" \data[8] [31:0] $end
$upscope $end
$upscope $end
$upscope $end
$scope module cpu_tb $end
$scope module cpu0 $end
$scope module cpu_regs $end
$var reg 32 _" \data[9] [31:0] $end
$upscope $end
$upscope $end
$upscope $end
$scope module cpu_tb $end
$scope module cpu0 $end
$scope module cpu_IMem $end
$var reg 32 `" \data[9] [31:0] $end
$upscope $end
$upscope $end
$upscope $end
$scope module cpu_tb $end
$scope module cpu0 $end
$scope module cpu_DMem $end
$var reg 32 a" \data[9] [31:0] $end
$upscope $end
$upscope $end
$upscope $end
$scope module cpu_tb $end
$scope module cpu0 $end
$scope module cpu_regs $end
$var reg 32 b" \data[10] [31:0] $end
$upscope $end
$upscope $end
$upscope $end
$scope module cpu_tb $end
$scope module cpu0 $end
$scope module cpu_IMem $end
$var reg 32 c" \data[10] [31:0] $end
$upscope $end
$upscope $end
$upscope $end
$scope module cpu_tb $end
$scope module cpu0 $end
$scope module cpu_DMem $end
$var reg 32 d" \data[10] [31:0] $end
$upscope $end
$upscope $end
$upscope $end
$scope module cpu_tb $end
$scope module cpu0 $end
$scope module cpu_regs $end
$var reg 32 e" \data[11] [31:0] $end
$upscope $end
$upscope $end
$upscope $end
$scope module cpu_tb $end
$scope module cpu0 $end
$scope module cpu_IMem $end
$var reg 32 f" \data[11] [31:0] $end
$upscope $end
$upscope $end
$upscope $end
$scope module cpu_tb $end
$scope module cpu0 $end
$scope module cpu_DMem $end
$var reg 32 g" \data[11] [31:0] $end
$upscope $end
$upscope $end
$upscope $end
$scope module cpu_tb $end
$scope module cpu0 $end
$scope module cpu_regs $end
$var reg 32 h" \data[12] [31:0] $end
$upscope $end
$upscope $end
$upscope $end
$scope module cpu_tb $end
$scope module cpu0 $end
$scope module cpu_IMem $end
$var reg 32 i" \data[12] [31:0] $end
$upscope $end
$upscope $end
$upscope $end
$scope module cpu_tb $end
$scope module cpu0 $end
$scope module cpu_DMem $end
$var reg 32 j" \data[12] [31:0] $end
$upscope $end
$upscope $end
$upscope $end
$scope module cpu_tb $end
$scope module cpu0 $end
$scope module cpu_regs $end
$var reg 32 k" \data[13] [31:0] $end
$upscope $end
$upscope $end
$upscope $end
$scope module cpu_tb $end
$scope module cpu0 $end
$scope module cpu_IMem $end
$var reg 32 l" \data[13] [31:0] $end
$upscope $end
$upscope $end
$upscope $end
$scope module cpu_tb $end
$scope module cpu0 $end
$scope module cpu_DMem $end
$var reg 32 m" \data[13] [31:0] $end
$upscope $end
$upscope $end
$upscope $end
$scope module cpu_tb $end
$scope module cpu0 $end
$scope module cpu_regs $end
$var reg 32 n" \data[14] [31:0] $end
$upscope $end
$upscope $end
$upscope $end
$scope module cpu_tb $end
$scope module cpu0 $end
$scope module cpu_IMem $end
$var reg 32 o" \data[14] [31:0] $end
$upscope $end
$upscope $end
$upscope $end
$scope module cpu_tb $end
$scope module cpu0 $end
$scope module cpu_DMem $end
$var reg 32 p" \data[14] [31:0] $end
$upscope $end
$upscope $end
$upscope $end
$scope module cpu_tb $end
$scope module cpu0 $end
$scope module cpu_regs $end
$var reg 32 q" \data[15] [31:0] $end
$upscope $end
$upscope $end
$upscope $end
$scope module cpu_tb $end
$scope module cpu0 $end
$scope module cpu_IMem $end
$var reg 32 r" \data[15] [31:0] $end
$upscope $end
$upscope $end
$upscope $end
$scope module cpu_tb $end
$scope module cpu0 $end
$scope module cpu_DMem $end
$var reg 32 s" \data[15] [31:0] $end
$upscope $end
$upscope $end
$upscope $end
$scope module cpu_tb $end
$scope module cpu0 $end
$scope module cpu_regs $end
$var reg 32 t" \data[16] [31:0] $end
$upscope $end
$upscope $end
$upscope $end
$scope module cpu_tb $end
$scope module cpu0 $end
$scope module cpu_IMem $end
$var reg 32 u" \data[16] [31:0] $end
$upscope $end
$upscope $end
$upscope $end
$scope module cpu_tb $end
$scope module cpu0 $end
$scope module cpu_DMem $end
$var reg 32 v" \data[16] [31:0] $end
$upscope $end
$upscope $end
$upscope $end
$scope module cpu_tb $end
$scope module cpu0 $end
$scope module cpu_regs $end
$var reg 32 w" \data[17] [31:0] $end
$upscope $end
$upscope $end
$upscope $end
$scope module cpu_tb $end
$scope module cpu0 $end
$scope module cpu_IMem $end
$var reg 32 x" \data[17] [31:0] $end
$upscope $end
$upscope $end
$upscope $end
$scope module cpu_tb $end
$scope module cpu0 $end
$scope module cpu_DMem $end
$var reg 32 y" \data[17] [31:0] $end
$upscope $end
$upscope $end
$upscope $end
$scope module cpu_tb $end
$scope module cpu0 $end
$scope module cpu_regs $end
$var reg 32 z" \data[18] [31:0] $end
$upscope $end
$upscope $end
$upscope $end
$scope module cpu_tb $end
$scope module cpu0 $end
$scope module cpu_IMem $end
$var reg 32 {" \data[18] [31:0] $end
$upscope $end
$upscope $end
$upscope $end
$scope module cpu_tb $end
$scope module cpu0 $end
$scope module cpu_DMem $end
$var reg 32 |" \data[18] [31:0] $end
$upscope $end
$upscope $end
$upscope $end
$scope module cpu_tb $end
$scope module cpu0 $end
$scope module cpu_regs $end
$var reg 32 }" \data[19] [31:0] $end
$upscope $end
$upscope $end
$upscope $end
$scope module cpu_tb $end
$scope module cpu0 $end
$scope module cpu_IMem $end
$var reg 32 ~" \data[19] [31:0] $end
$upscope $end
$upscope $end
$upscope $end
$scope module cpu_tb $end
$scope module cpu0 $end
$scope module cpu_DMem $end
$var reg 32 !# \data[19] [31:0] $end
$upscope $end
$upscope $end
$upscope $end
$scope module cpu_tb $end
$scope module cpu0 $end
$scope module cpu_regs $end
$var reg 32 "# \data[20] [31:0] $end
$upscope $end
$upscope $end
$upscope $end
$scope module cpu_tb $end
$scope module cpu0 $end
$scope module cpu_IMem $end
$var reg 32 ## \data[20] [31:0] $end
$upscope $end
$upscope $end
$upscope $end
$scope module cpu_tb $end
$scope module cpu0 $end
$scope module cpu_DMem $end
$var reg 32 $# \data[20] [31:0] $end
$upscope $end
$upscope $end
$upscope $end
$scope module cpu_tb $end
$scope module cpu0 $end
$scope module cpu_regs $end
$var reg 32 %# \data[21] [31:0] $end
$upscope $end
$upscope $end
$upscope $end
$scope module cpu_tb $end
$scope module cpu0 $end
$scope module cpu_IMem $end
$var reg 32 &# \data[21] [31:0] $end
$upscope $end
$upscope $end
$upscope $end
$scope module cpu_tb $end
$scope module cpu0 $end
$scope module cpu_DMem $end
$var reg 32 '# \data[21] [31:0] $end
$upscope $end
$upscope $end
$upscope $end
$scope module cpu_tb $end
$scope module cpu0 $end
$scope module cpu_regs $end
$var reg 32 (# \data[22] [31:0] $end
$upscope $end
$upscope $end
$upscope $end
$scope module cpu_tb $end
$scope module cpu0 $end
$scope module cpu_IMem $end
$var reg 32 )# \data[22] [31:0] $end
$upscope $end
$upscope $end
$upscope $end
$scope module cpu_tb $end
$scope module cpu0 $end
$scope module cpu_DMem $end
$var reg 32 *# \data[22] [31:0] $end
$upscope $end
$upscope $end
$upscope $end
$scope module cpu_tb $end
$scope module cpu0 $end
$scope module cpu_regs $end
$var reg 32 +# \data[23] [31:0] $end
$upscope $end
$upscope $end
$upscope $end
$scope module cpu_tb $end
$scope module cpu0 $end
$scope module cpu_IMem $end
$var reg 32 ,# \data[23] [31:0] $end
$upscope $end
$upscope $end
$upscope $end
$scope module cpu_tb $end
$scope module cpu0 $end
$scope module cpu_DMem $end
$var reg 32 -# \data[23] [31:0] $end
$upscope $end
$upscope $end
$upscope $end
$scope module cpu_tb $end
$scope module cpu0 $end
$scope module cpu_regs $end
$var reg 32 .# \data[24] [31:0] $end
$upscope $end
$upscope $end
$upscope $end
$scope module cpu_tb $end
$scope module cpu0 $end
$scope module cpu_IMem $end
$var reg 32 /# \data[24] [31:0] $end
$upscope $end
$upscope $end
$upscope $end
$scope module cpu_tb $end
$scope module cpu0 $end
$scope module cpu_DMem $end
$var reg 32 0# \data[24] [31:0] $end
$upscope $end
$upscope $end
$upscope $end
$scope module cpu_tb $end
$scope module cpu0 $end
$scope module cpu_regs $end
$var reg 32 1# \data[25] [31:0] $end
$upscope $end
$upscope $end
$upscope $end
$scope module cpu_tb $end
$scope module cpu0 $end
$scope module cpu_IMem $end
$var reg 32 2# \data[25] [31:0] $end
$upscope $end
$upscope $end
$upscope $end
$scope module cpu_tb $end
$scope module cpu0 $end
$scope module cpu_DMem $end
$var reg 32 3# \data[25] [31:0] $end
$upscope $end
$upscope $end
$upscope $end
$scope module cpu_tb $end
$scope module cpu0 $end
$scope module cpu_regs $end
$var reg 32 4# \data[26] [31:0] $end
$upscope $end
$upscope $end
$upscope $end
$scope module cpu_tb $end
$scope module cpu0 $end
$scope module cpu_IMem $end
$var reg 32 5# \data[26] [31:0] $end
$upscope $end
$upscope $end
$upscope $end
$scope module cpu_tb $end
$scope module cpu0 $end
$scope module cpu_DMem $end
$var reg 32 6# \data[26] [31:0] $end
$upscope $end
$upscope $end
$upscope $end
$scope module cpu_tb $end
$scope module cpu0 $end
$scope module cpu_regs $end
$var reg 32 7# \data[27] [31:0] $end
$upscope $end
$upscope $end
$upscope $end
$scope module cpu_tb $end
$scope module cpu0 $end
$scope module cpu_IMem $end
$var reg 32 8# \data[27] [31:0] $end
$upscope $end
$upscope $end
$upscope $end
$scope module cpu_tb $end
$scope module cpu0 $end
$scope module cpu_DMem $end
$var reg 32 9# \data[27] [31:0] $end
$upscope $end
$upscope $end
$upscope $end
$scope module cpu_tb $end
$scope module cpu0 $end
$scope module cpu_regs $end
$var reg 32 :# \data[28] [31:0] $end
$upscope $end
$upscope $end
$upscope $end
$scope module cpu_tb $end
$scope module cpu0 $end
$scope module cpu_IMem $end
$var reg 32 ;# \data[28] [31:0] $end
$upscope $end
$upscope $end
$upscope $end
$scope module cpu_tb $end
$scope module cpu0 $end
$scope module cpu_DMem $end
$var reg 32 <# \data[28] [31:0] $end
$upscope $end
$upscope $end
$upscope $end
$scope module cpu_tb $end
$scope module cpu0 $end
$scope module cpu_regs $end
$var reg 32 =# \data[29] [31:0] $end
$upscope $end
$upscope $end
$upscope $end
$scope module cpu_tb $end
$scope module cpu0 $end
$scope module cpu_IMem $end
$var reg 32 ># \data[29] [31:0] $end
$upscope $end
$upscope $end
$upscope $end
$scope module cpu_tb $end
$scope module cpu0 $end
$scope module cpu_DMem $end
$var reg 32 ?# \data[29] [31:0] $end
$upscope $end
$upscope $end
$upscope $end
$scope module cpu_tb $end
$scope module cpu0 $end
$scope module cpu_regs $end
$var reg 32 @# \data[30] [31:0] $end
$upscope $end
$upscope $end
$upscope $end
$scope module cpu_tb $end
$scope module cpu0 $end
$scope module cpu_IMem $end
$var reg 32 A# \data[30] [31:0] $end
$upscope $end
$upscope $end
$upscope $end
$scope module cpu_tb $end
$scope module cpu0 $end
$scope module cpu_DMem $end
$var reg 32 B# \data[30] [31:0] $end
$upscope $end
$upscope $end
$upscope $end
$scope module cpu_tb $end
$scope module cpu0 $end
$scope module cpu_regs $end
$var reg 32 C# \data[31] [31:0] $end
$upscope $end
$upscope $end
$upscope $end
$scope module cpu_tb $end
$scope module cpu0 $end
$scope module cpu_IMem $end
$var reg 32 D# \data[31] [31:0] $end
$upscope $end
$upscope $end
$upscope $end
$scope module cpu_tb $end
$scope module cpu0 $end
$scope module cpu_DMem $end
$var reg 32 E# \data[31] [31:0] $end
$upscope $end
$upscope $end
$upscope $end
$enddefinitions $end
#0
$dumpvars
bx E#
bx D#
b11111 C#
bx B#
bx A#
b11110 @#
bx ?#
bx >#
b11101 =#
bx <#
bx ;#
b11100 :#
bx 9#
bx 8#
b11011 7#
bx 6#
bx 5#
b11010 4#
bx 3#
bx 2#
b11001 1#
bx 0#
bx /#
b11000 .#
bx -#
bx ,#
b10111 +#
bx *#
bx )#
b10110 (#
bx '#
bx &#
b10101 %#
bx $#
bx ##
b10100 "#
bx !#
bx ~"
b10011 }"
bx |"
bx {"
b10010 z"
bx y"
bx x"
b10001 w"
bx v"
b100010110101101111111110011100 u"
b10000 t"
bx s"
b11101101001011000000000100 r"
b1111 q"
bx p"
b101010001100000000 o"
b1110 n"
bx m"
b10001101010000100000000000001000 l"
b1101 k"
bx j"
b100010011110100000101010 i"
b1100 h"
bx g"
b100000100100100000100000 f"
b1011 e"
bx d"
b100010000010000000100101 c"
b1010 b"
bx a"
b10011010010000000100100 `"
b1001 _"
bx ^"
b10001101010000100000000000001000 ]"
b1000 \"
bx ["
b10101101010111000000000000001000 Z"
b111 Y"
bx X"
b10001101010011100000000000000100 W"
b110 V"
bx U"
b10000100101001100000100100 T"
b101 S"
bx R"
b1111011010111000000100101 Q"
b100 P"
bx O"
b1001001000100100000100010 N"
b11 M"
bx L"
b10001101010011010000000000000100 K"
b10 J"
bx I"
b10101101010111110000000000000100 H"
b1 G"
bx F"
b1000100000100000000100000 E"
b0 D"
bx C"
bx B"
bx A"
bx @"
bx ?"
bx >"
b1011010010110100101101 ="
b0 <"
bx ;"
bx :"
bx 9"
bx 8"
bx 7"
bx 6"
b0xxxxxxxxxxxxxxxxxxxxxxxxxxxxxxxxxxxxxxxx0000000000000000001011010010110100101101xxxxxxxxxxxxxxxxxxxxxxxxxxxxxxxxxxxxxxxxxxxxxxxxxxxxxxxxxxxxxxxxxxxxxxxxxxxxxxxxxxxxxxxxxxxxxxxxxxxxxxxxxxxxxxxxxxxxxxxx 5"
bx 4"
b1011010010110100101101 3"
bx 2"
bx 1"
bx 0"
b0 /"
bx ."
b11111111111111111111111111111111 -"
b100000 ,"
b0 +"
b0 *"
b0 )"
b0 ("
b0 '"
b0 &"
b0 %"
b0 $"
b0 #"
b0 ""
b0 !"
b0 ~
bx }
b0 |
b0 {
b0 z
b0 y
b10 x
b0 w
b0 v
bx u
bz t
b111111111111111111111111111111 s
bx r
b0 q
b0 p
b10 o
b0 n
b10 m
b0 l
b0 k
b11111111111111111111111111111111 j
bx i
b0 h
0g
0f
b0 e
b0 d
0c
1b
b0 a
b0 `
b0 _
b0 ^
b0 ]
b0 \
b0 [
b0 Z
0Y
0X
0W
0V
0U
0T
b0 S
0R
b0 Q
0P
b0 O
0N
b0 M
0L
0K
0J
0I
b0 H
b0 G
b0 F
b10 E
b0 D
0C
b10 B
0A
bx @
1?
0>
0=
0<
b0 ;
1:
19
18
b0 7
16
b0 5
b0 4
b0 3
12
b0 1
bx 0
b0 /
b0 .
b0 -
b0 ,
b0 +
b0 *
b0 )
b0 (
bz '
b100000 &
b10000000000000000000000000000011 %
0$
0#
bx "
b0xxxxxxxxxxxxxxxxxxxxxxxxxxxxxxxxxxxxxxxx0000000000000000001011010010110100101101xxxxxxxxxxxxxxxxxxxxxxxxxxxxxxxxxxxxxxxxxxxxxxxxxxxxxxxxxxxxxxxxxxxxxxxxxxxxxxxxxxxxxxxxxxxxxxxxxxxxxxxxxxxxxxxxxxxxxxxx !
$end
#5000
b0xxxxxxxxxxxxxxxxxxxxxxxxxxxxxxxxxxxxxxxx00000000000000000010110100101101001011010000000000101101001011010010110100101101xxxxxxxxxxxxxxxxxxxxxxxxxxxxxxxxxxxxxxxxxxxxxxxxxxxxxxxxxxxxxxxxxxxxxxxxxxxxxxxx !
b0xxxxxxxxxxxxxxxxxxxxxxxxxxxxxxxxxxxxxxxx00000000000000000010110100101101001011010000000000101101001011010010110100101101xxxxxxxxxxxxxxxxxxxxxxxxxxxxxxxxxxxxxxxxxxxxxxxxxxxxxxxxxxxxxxxxxxxxxxxxxxxxxxxx 5"
b1011010010110100101101 2"
b1011010010110100101101 ?"
b11111111111111111111111111111111 6"
b0 7"
b0 >"
1#
#10000
b11111111111111111111111111111111 "
b11111 C#
b11110 @#
b11101 =#
b11100 :#
b11011 7#
b11010 4#
b11001 1#
b11000 .#
b10111 +#
b10110 (#
b10101 %#
b10100 "#
b10011 }"
b10010 z"
b10001 w"
b10000 t"
b1111 q"
b1110 n"
b1101 k"
b1100 h"
b1011 e"
b1010 b"
b1001 _"
b1000 \"
b111 Y"
b110 V"
b101 S"
b100 P"
b11 M"
b10 J"
b1 G"
b0 D"
b100000 ,"
0#
#15000
b0xxxxxxxxxxxxxxxxxxxxxxxxxxxxxxxxxxxxxxxx000000000000000000101101001011010010110100000000001011010010110100101101001011010000000000000000001011010010110100101101xxxxxxxxxxxxxxxxxxxxxxxxxxxxxxxxxxxxxxxx !
b0xxxxxxxxxxxxxxxxxxxxxxxxxxxxxxxxxxxxxxxx000000000000000000101101001011010010110100000000001011010010110100101101001011010000000000000000001011010010110100101101xxxxxxxxxxxxxxxxxxxxxxxxxxxxxxxxxxxxxxxx 5"
b1011010010110100101101 1"
b1011010010110100101101 A"
b0 8"
b0 @"
1#
#20000
b11111 C#
b11110 @#
b11101 =#
b11100 :#
b11011 7#
b11010 4#
b11001 1#
b11000 .#
b10111 +#
b10110 (#
b10101 %#
b10100 "#
b10011 }"
b10010 z"
b10001 w"
b10000 t"
b1111 q"
b1110 n"
b1101 k"
b1100 h"
b1011 e"
b1010 b"
b1001 _"
b1000 \"
b111 Y"
b110 V"
b101 S"
b100 P"
b11 M"
b10 J"
b1 G"
b0 D"
b100000 ,"
0#
#25000
b0xxxxxxxxxxxxxxxxxxxxxxxxxxxxxxxxxxxxxxxx0000000000000000001011010010110100101101000000000010110100101101001011010010110100000000000000000010110100101101001011010000000000000000001011010010110100101101 !
b0xxxxxxxxxxxxxxxxxxxxxxxxxxxxxxxxxxxxxxxx0000000000000000001011010010110100101101000000000010110100101101001011010010110100000000000000000010110100101101001011010000000000000000001011010010110100101101 5"
b1011010010110100101101 0"
b1011010010110100101101 C"
b0 9"
b0 B"
1#
#30000
b11111 C#
b11110 @#
b11101 =#
b11100 :#
b11011 7#
b11010 4#
b11001 1#
b11000 .#
b10111 +#
b10110 (#
b10101 %#
b10100 "#
b10011 }"
b10010 z"
b10001 w"
b10000 t"
b1111 q"
b1110 n"
b1101 k"
b1100 h"
b1011 e"
b1010 b"
b1001 _"
b1000 \"
b111 Y"
b110 V"
b101 S"
b100 P"
b11 M"
b10 J"
b1 G"
b0 D"
b100000 ,"
0#
#35000
1#
#40000
b11111 C#
b11110 @#
b11101 =#
b11100 :#
b11011 7#
b11010 4#
b11001 1#
b11000 .#
b10111 +#
b10110 (#
b10101 %#
b10100 "#
b10011 }"
b10010 z"
b10001 w"
b10000 t"
b1111 q"
b1110 n"
b1101 k"
b1100 h"
b1011 e"
b1010 b"
b1001 _"
b1000 \"
b111 Y"
b110 V"
b101 S"
b100 P"
b11 M"
b10 J"
b1 G"
b0 D"
b100000 ,"
0#
#42500
1$
